[
	{
		"executionTime": "09:00:50",
		"queries": [
			{
				"sql": "INSERT INTO test(name) VALUES ('aaa'),('bbb')",
				"resultFile": "test_insert"
			},
			{
				"sql": "SELECT * FROM test",
				"resultFile": "test_select"
			}
		]
	},
	{
		"executionTime": "09:00:00",
		"queries": [
			{
				"sql": "SELECT 1"
			},
			{
				"sql": "SELECT 2",
				"resultFile": "select2"
			}
		]
	}
]